[{
	"tag" : "div",
	"class" : "row",
	"attr" : [{
		
	}],
	"content" : [{
					"tag" : "div",
					"class" : "col-md-6",
					"attr" : [{}],
					"content" :
						[{
							"tag" : "h6",
							"class" : "food_name row",
							"attr" : [{}],
							"content" : [{
								"tag" : "img",
								"class" : "food_image col-md-6",
								"attr" : [{
									"src" : "https://www.hoidaubepaau.com/wp-content/uploads/2015/12/hinh-anh-vit-quay-bac-kinh.jpg",
									"width" : "100px",
									"height" : "100px"
								}]
								
							},{
								"tag" : "p",
								"class" : "food_title col-md-6",
								"content" : "Tên món ăn",
								"attr" : [{"style" : "color:red;"}]
							}]
						}]
					
				},
				{
					"tag" : "div",
					"class" : "col-md-3",
					"attr" : [{}],
					"content" : [{
						"tag" : "h6",
						"content" : "Đơn vị",
						"attr" : [{}],
						"class" : "food_unit"
					}]
				},
				{
					"tag" : "div",
					"class" : "col-md-3",
					"attr" : [{}],
					"content" : [{
						"tag" : "h6",
						"content" : "Đơn giá",
						"attr" : [{}],
						"class" : "food_price"
					}]
				}]
}]